…
``` r
litters_df
```

    ## # A tibble: 49 x 8
    ##    Group `Litter Number` `GD0 weight` `GD18 weight` `GD of Birth`
    ##    <chr> <chr>                  <dbl>         <dbl>         <dbl>
    ##  1 Con7  #85                     19.7          34.7            20
    ##  2 Con7  #1/2/95/2               27            42              19
    ##  3 Con7  #5/5/3/83/3-3           26            41.4            19
    ##  4 Con7  #5/4/2/95/2             28.5          44.1            19
    ##  5 Con7  #4/2/95/3-3             NA            NA              20
    ##  6 Con7  #2/2/95/3-2             NA            NA              20
    ##  7 Con7  #1/5/3/83/3-3/2         NA            NA              20
    ##  8 Con8  #3/83/3-3               NA            NA              20
    ##  9 Con8  #2/95/3                 NA            NA              20
    ## 10 Con8  #3/5/2/2/95             28.5          NA              20
    ## # … with 39 more rows, and 3 more variables: `Pups born alive` <dbl>, `Pups
    ## #   dead @ birth` <dbl>, `Pups survive` <dbl>

``` r
litters_df = janitor:: clean_names(litters_df)
```

## select

choose some columns and not others

``` r
 select(litters_df, group,litter_number )
```

    ## # A tibble: 49 x 2
    ##    group litter_number  
    ##    <chr> <chr>          
    ##  1 Con7  #85            
    ##  2 Con7  #1/2/95/2      
    ##  3 Con7  #5/5/3/83/3-3  
    ##  4 Con7  #5/4/2/95/2    
    ##  5 Con7  #4/2/95/3-3    
    ##  6 Con7  #2/2/95/3-2    
    ##  7 Con7  #1/5/3/83/3-3/2
    ##  8 Con8  #3/83/3-3      
    ##  9 Con8  #2/95/3        
    ## 10 Con8  #3/5/2/2/95    
    ## # … with 39 more rows

``` r
select(litters_df, group:gd_of_birth)
```

    ## # A tibble: 49 x 5
    ##    group litter_number   gd0_weight gd18_weight gd_of_birth
    ##    <chr> <chr>                <dbl>       <dbl>       <dbl>
    ##  1 Con7  #85                   19.7        34.7          20
    ##  2 Con7  #1/2/95/2             27          42            19
    ##  3 Con7  #5/5/3/83/3-3         26          41.4          19
    ##  4 Con7  #5/4/2/95/2           28.5        44.1          19
    ##  5 Con7  #4/2/95/3-3           NA          NA            20
    ##  6 Con7  #2/2/95/3-2           NA          NA            20
    ##  7 Con7  #1/5/3/83/3-3/2       NA          NA            20
    ##  8 Con8  #3/83/3-3             NA          NA            20
    ##  9 Con8  #2/95/3               NA          NA            20
    ## 10 Con8  #3/5/2/2/95           28.5        NA            20
    ## # … with 39 more rows

``` r
select(litters_df, -litter_number)
```

    ## # A tibble: 49 x 7
    ##    group gd0_weight gd18_weight gd_of_birth pups_born_alive pups_dead_birth
    ##    <chr>      <dbl>       <dbl>       <dbl>           <dbl>           <dbl>
    ##  1 Con7        19.7        34.7          20               3               4
    ##  2 Con7        27          42            19               8               0
    ##  3 Con7        26          41.4          19               6               0
    ##  4 Con7        28.5        44.1          19               5               1
    ##  5 Con7        NA          NA            20               6               0
    ##  6 Con7        NA          NA            20               6               0
    ##  7 Con7        NA          NA            20               9               0
    ##  8 Con8        NA          NA            20               9               1
    ##  9 Con8        NA          NA            20               8               0
    ## 10 Con8        28.5        NA            20               8               0
    ## # … with 39 more rows, and 1 more variable: pups_survive <dbl>

renaming columns…

``` r
select(litters_df, GROUP = group, LITTER_number = litter_number)
```

    ## # A tibble: 49 x 2
    ##    GROUP LITTER_number  
    ##    <chr> <chr>          
    ##  1 Con7  #85            
    ##  2 Con7  #1/2/95/2      
    ##  3 Con7  #5/5/3/83/3-3  
    ##  4 Con7  #5/4/2/95/2    
    ##  5 Con7  #4/2/95/3-3    
    ##  6 Con7  #2/2/95/3-2    
    ##  7 Con7  #1/5/3/83/3-3/2
    ##  8 Con8  #3/83/3-3      
    ##  9 Con8  #2/95/3        
    ## 10 Con8  #3/5/2/2/95    
    ## # … with 39 more rows

``` r
rename(litters_df,GROUP = group, LITTER_number = litter_number)
```

    ## # A tibble: 49 x 8
    ##    GROUP LITTER_number gd0_weight gd18_weight gd_of_birth pups_born_alive
    ##    <chr> <chr>              <dbl>       <dbl>       <dbl>           <dbl>
    ##  1 Con7  #85                 19.7        34.7          20               3
    ##  2 Con7  #1/2/95/2           27          42            19               8
    ##  3 Con7  #5/5/3/83/3-3       26          41.4          19               6
    ##  4 Con7  #5/4/2/95/2         28.5        44.1          19               5
    ##  5 Con7  #4/2/95/3-3         NA          NA            20               6
    ##  6 Con7  #2/2/95/3-2         NA          NA            20               6
    ##  7 Con7  #1/5/3/83/3-…       NA          NA            20               9
    ##  8 Con8  #3/83/3-3           NA          NA            20               9
    ##  9 Con8  #2/95/3             NA          NA            20               8
    ## 10 Con8  #3/5/2/2/95         28.5        NA            20               8
    ## # … with 39 more rows, and 2 more variables: pups_dead_birth <dbl>,
    ## #   pups_survive <dbl>
